<?xml version="1.0" encoding="utf-8"?>
<!-- Generator: Adobe Illustrator 16.0.4, SVG Export Plug-In . SVG Version: 6.00 Build 0)  -->
<!DOCTYPE svg PUBLIC "-//W3C//DTD SVG 1.1//EN" "http://www.w3.org/Graphics/SVG/1.1/DTD/svg11.dtd">
<svg version="1.1" id="Layer_1" xmlns="http://www.w3.org/2000/svg" xmlns:xlink="http://www.w3.org/1999/xlink" x="0px" y="0px"
	 width="44.941px" height="38.922px" viewBox="77.505 69.516 44.941 38.922" enable-background="new 77.505 69.516 44.941 38.922"
	 xml:space="preserve">
<polygon points="88.74,108.438 77.505,88.977 88.74,69.516 111.211,69.516 122.446,88.977 111.211,108.438 "/>
</svg>
